%YAML 1.1
%TAG !u! tag:unity3d.com,2011:
--- !u!1045 &1
EditorBuildSettings:
  m_ObjectHideFlags: 0
  serializedVersion: 2
  m_Scenes:
  - enabled: 1
    path: Assets/Scenes/LoaderScene.unity
    guid: b4177df731b2e8444bad94bc0ad6b5c4
  - enabled: 1
    path: Assets/Scenes/MainMenu.unity
    guid: 6425a0e7fbaa54f4192f7d1289eaa7e8
  - enabled: 1
    path: Assets/Scenes/GameScene.unity
    guid: 9fc0d4010bbf28b4594072e72b8655ab
  m_configObjects: {}
